{"failedCount":1,"prefixedPath":"classpath:greenway\/features\/retryAndSleep.feature","packageQualifiedName":"greenway.features.retryAndSleep","loopIndex":-1,"relativePath":"greenway\/features\/retryAndSleep.feature","scenarioResults":[{"sectionIndex":0,"stepResults":[{"result":{"nanos":1861909,"millis":1.861909,"status":"passed"},"step":{"background":true,"line":5,"prefix":"Given","index":0,"text":"url 'https:\/\/reqres.in\/api\/'"},"stepLog":"15:30:38.065 karate.env system property was: null \n15:30:38.071 >> lock acquired, begin callSingle: classpath:helpers\/basicAuth.js\n15:30:38.122 << lock released, cached callSingle: classpath:helpers\/basicAuth.js\n"},{"result":{"nanos":34494534,"millis":34.494534,"status":"passed"},"step":{"line":8,"prefix":"*","index":0,"text":"configure retry = { count: 5, interval:5000 }"}},{"result":{"nanos":797272,"millis":0.797272,"status":"passed"},"step":{"line":10,"prefix":"Given","index":1,"text":"params {page:2,delay:false}"}},{"result":{"nanos":468469,"millis":0.468469,"status":"passed"},"step":{"line":11,"prefix":"Given","index":2,"text":"path 'users'"}},{"result":{"nanos":12606,"millis":0.012606,"status":"passed"},"step":{"line":12,"prefix":"And","index":3,"text":"retry until  response.per_page == 6"}},{"result":{"nanos":1017789225,"millis":1017.789225,"status":"passed"},"step":{"line":13,"prefix":"When","index":4,"text":"method Get"},"stepLog":"15:30:38.446 request:\n1 > GET https:\/\/reqres.in\/api\/users?delay=false&page=2\n1 > x-mac-address: cf:32:d4:43:b5,ae:43:ad:12:f4\n1 > Host: reqres.in\n1 > Connection: Keep-Alive\n1 > User-Agent: Apache-HttpClient\/4.5.13 (Java\/1.8.0_231)\n1 > Accept-Encoding: gzip,deflate\n\n\n15:30:39.189 response time in milliseconds: 741\n1 < 200\n1 < Date: Sat, 10 Sep 2022 10:00:39 GMT\n1 < Content-Type: application\/json; charset=utf-8\n1 < Transfer-Encoding: chunked\n1 < Connection: keep-alive\n1 < X-Powered-By: Express\n1 < Access-Control-Allow-Origin: *\n1 < Etag: W\/\"406-ut0vzoCuidvyMf8arZpMpJ6ZRDw\"\n1 < Via: 1.1 vegur\n1 < CF-Cache-Status: DYNAMIC\n1 < Report-To: {\"endpoints\":[{\"url\":\"https:\\\/\\\/a.nel.cloudflare.com\\\/report\\\/v3?s=3CoO28H0V2zWmEBn6ZExZLLi7IfesJnvjjqHqV2FzWLhC4hRMYpEFOX4IdMAvd2pc0khGZ1B5CuhggtxHO9tXBOzZ0Xki3veegleXBThaN2PQb3vcN36NF9RAA%3D%3D\"}],\"group\":\"cf-nel\",\"max_age\":604800}\n1 < NEL: {\"success_fraction\":0,\"report_to\":\"cf-nel\",\"max_age\":604800}\n1 < Server: cloudflare\n1 < CF-RAY: 74875159fade2e1d-BOM\n{\"page\":2,\"per_page\":6,\"total\":12,\"total_pages\":2,\"data\":[{\"id\":7,\"email\":\"michael.lawson@reqres.in\",\"first_name\":\"Michael\",\"last_name\":\"Lawson\",\"avatar\":\"https:\/\/reqres.in\/img\/faces\/7-image.jpg\"},{\"id\":8,\"email\":\"lindsay.ferguson@reqres.in\",\"first_name\":\"Lindsay\",\"last_name\":\"Ferguson\",\"avatar\":\"https:\/\/reqres.in\/img\/faces\/8-image.jpg\"},{\"id\":9,\"email\":\"tobias.funke@reqres.in\",\"first_name\":\"Tobias\",\"last_name\":\"Funke\",\"avatar\":\"https:\/\/reqres.in\/img\/faces\/9-image.jpg\"},{\"id\":10,\"email\":\"byron.fields@reqres.in\",\"first_name\":\"Byron\",\"last_name\":\"Fields\",\"avatar\":\"https:\/\/reqres.in\/img\/faces\/10-image.jpg\"},{\"id\":11,\"email\":\"george.edwards@reqres.in\",\"first_name\":\"George\",\"last_name\":\"Edwards\",\"avatar\":\"https:\/\/reqres.in\/img\/faces\/11-image.jpg\"},{\"id\":12,\"email\":\"rachel.howell@reqres.in\",\"first_name\":\"Rachel\",\"last_name\":\"Howell\",\"avatar\":\"https:\/\/reqres.in\/img\/faces\/12-image.jpg\"}],\"support\":{\"url\":\"https:\/\/reqres.in\/#support-heading\",\"text\":\"To keep ReqRes free, contributions towards server costs are appreciated!\"}}\n\n"},{"result":{"nanos":16193,"millis":0.016193,"status":"passed"},"step":{"line":14,"prefix":"Then","index":5,"text":"status 200"}}],"line":7,"description":"","durationMillis":1055.440208,"failed":false,"tags":["retryandsleep"],"executorName":"main","name":"Retry scenario (Retries 5 times in interval of 5 seconds)","startTime":1662804038031,"refId":"[1:7]","endTime":1662804039195,"exampleIndex":-1},{"sectionIndex":1,"stepResults":[{"result":{"nanos":485210,"millis":0.48521,"status":"passed"},"step":{"background":true,"line":5,"prefix":"Given","index":0,"text":"url 'https:\/\/reqres.in\/api\/'"},"stepLog":"15:30:39.215 karate.env system property was: null \n"},{"result":{"nanos":835076,"millis":0.835076,"status":"passed"},"step":{"line":17,"prefix":"*","index":0,"text":"def sleep = function(pause){ java.lang.Thread.sleep(pause) }"}},{"result":{"nanos":165466,"millis":0.165466,"status":"passed"},"step":{"line":19,"prefix":"Given","index":1,"text":"params {page:2,delay:false}"}},{"result":{"nanos":368986,"millis":0.368986,"status":"passed"},"step":{"line":20,"prefix":"Given","index":2,"text":"path 'users'"}},{"result":{"nanos":826376539,"millis":826.376539,"status":"passed"},"step":{"line":21,"prefix":"When","index":3,"text":"method Get"},"stepLog":"15:30:39.222 request:\n1 > GET https:\/\/reqres.in\/api\/users?delay=false&page=2\n1 > x-mac-address: cf:32:d4:43:b5,ae:43:ad:12:f4\n1 > Host: reqres.in\n1 > Connection: Keep-Alive\n1 > User-Agent: Apache-HttpClient\/4.5.13 (Java\/1.8.0_231)\n1 > Accept-Encoding: gzip,deflate\n\n\n15:30:40.046 response time in milliseconds: 824\n1 < 200\n1 < Date: Sat, 10 Sep 2022 10:00:40 GMT\n1 < Content-Type: application\/json; charset=utf-8\n1 < Transfer-Encoding: chunked\n1 < Connection: keep-alive\n1 < X-Powered-By: Express\n1 < Access-Control-Allow-Origin: *\n1 < Etag: W\/\"406-ut0vzoCuidvyMf8arZpMpJ6ZRDw\"\n1 < Via: 1.1 vegur\n1 < CF-Cache-Status: DYNAMIC\n1 < Report-To: {\"endpoints\":[{\"url\":\"https:\\\/\\\/a.nel.cloudflare.com\\\/report\\\/v3?s=aDtNYX3DAi4dd%2BQrthmFQMGQ4LCfI9%2B9n%2FmwmKvtWAREjV0pEyvU9BRlsrh775jzoydRKLgfQ0xuJfDYZ39iPsCHksmdLzJGUa7qDpibHQM0P5%2Fkh%2Bl3jhiMnQ%3D%3D\"}],\"group\":\"cf-nel\",\"max_age\":604800}\n1 < NEL: {\"success_fraction\":0,\"report_to\":\"cf-nel\",\"max_age\":604800}\n1 < Server: cloudflare\n1 < CF-RAY: 7487515e0fac85cb-BOM\n{\"page\":2,\"per_page\":6,\"total\":12,\"total_pages\":2,\"data\":[{\"id\":7,\"email\":\"michael.lawson@reqres.in\",\"first_name\":\"Michael\",\"last_name\":\"Lawson\",\"avatar\":\"https:\/\/reqres.in\/img\/faces\/7-image.jpg\"},{\"id\":8,\"email\":\"lindsay.ferguson@reqres.in\",\"first_name\":\"Lindsay\",\"last_name\":\"Ferguson\",\"avatar\":\"https:\/\/reqres.in\/img\/faces\/8-image.jpg\"},{\"id\":9,\"email\":\"tobias.funke@reqres.in\",\"first_name\":\"Tobias\",\"last_name\":\"Funke\",\"avatar\":\"https:\/\/reqres.in\/img\/faces\/9-image.jpg\"},{\"id\":10,\"email\":\"byron.fields@reqres.in\",\"first_name\":\"Byron\",\"last_name\":\"Fields\",\"avatar\":\"https:\/\/reqres.in\/img\/faces\/10-image.jpg\"},{\"id\":11,\"email\":\"george.edwards@reqres.in\",\"first_name\":\"George\",\"last_name\":\"Edwards\",\"avatar\":\"https:\/\/reqres.in\/img\/faces\/11-image.jpg\"},{\"id\":12,\"email\":\"rachel.howell@reqres.in\",\"first_name\":\"Rachel\",\"last_name\":\"Howell\",\"avatar\":\"https:\/\/reqres.in\/img\/faces\/12-image.jpg\"}],\"support\":{\"url\":\"https:\/\/reqres.in\/#support-heading\",\"text\":\"To keep ReqRes free, contributions towards server costs are appreciated!\"}}\n\n"},{"result":{"nanos":5011896108,"millis":5011.896108,"status":"passed"},"step":{"line":22,"prefix":"*","index":4,"text":"eval sleep(5000)"}},{"result":{"nanos":6593,"millis":0.006593,"status":"passed"},"step":{"line":23,"prefix":"Then","index":5,"text":"status 200"}}],"line":16,"description":"","durationMillis":5840.133978,"failed":false,"tags":["retryandsleep"],"executorName":"main","name":"Sleep scenario (waits for 5 seconds before validating response code)","startTime":1662804039211,"refId":"[2:16]","endTime":1662804045059,"exampleIndex":-1},{"sectionIndex":2,"stepResults":[{"result":{"nanos":235796,"millis":0.235796,"status":"passed"},"step":{"background":true,"line":5,"prefix":"Given","index":0,"text":"url 'https:\/\/reqres.in\/api\/'"},"stepLog":"15:30:45.065 karate.env system property was: null \n"},{"result":{"nanos":574982,"millis":0.574982,"status":"passed"},"step":{"line":26,"prefix":"*","index":0,"text":"def foo = 10                      \/\/define integer"}},{"result":{"nanos":1253107,"millis":1.253107,"status":"passed"},"step":{"line":27,"prefix":"*","index":1,"text":"def json = {\"bar\": #(foo+'') }    \/\/convert the interert to string and save in json"}},{"result":{"nanos":8612235,"millis":8.612235,"status":"passed"},"step":{"line":28,"prefix":"And","index":2,"text":"match json == {'bar': '10'}     \/\/compare json with sample string"}}],"line":25,"description":"","durationMillis":10.67612,"failed":false,"tags":["retryandsleep"],"executorName":"main","name":"Converting the number to string","startTime":1662804045065,"refId":"[3:25]","endTime":1662804045078,"exampleIndex":-1},{"sectionIndex":3,"stepResults":[{"result":{"nanos":188108,"millis":0.188108,"status":"passed"},"step":{"background":true,"line":5,"prefix":"Given","index":0,"text":"url 'https:\/\/reqres.in\/api\/'"},"stepLog":"15:30:45.086 karate.env system property was: null \n"},{"result":{"nanos":956666,"millis":0.956666,"status":"passed"},"step":{"line":31,"prefix":"*","index":0,"text":"def foo = '10'                      \/\/define integer"}},{"result":{"nanos":10384054,"millis":10.384054,"status":"passed"},"step":{"line":32,"prefix":"*","index":1,"text":"def json = {\"bar\": #(foo*1) }    \/\/convert the interert to string and save in json"}},{"result":{"nanos":667087,"millis":0.667087,"status":"passed"},"step":{"line":33,"prefix":"And","index":2,"text":"match json == {'bar': 10}     \/\/compare json with sample string"}},{"result":{"nanos":6669497,"millis":6.669497,"status":"passed"},"step":{"line":34,"prefix":"*","index":3,"text":"def json2 = {\"bar\": #(parseInt(foo*1)) } \/\/using java script"}},{"result":{"nanos":438753,"millis":0.438753,"status":"passed"},"step":{"line":35,"prefix":"And","index":4,"text":"match json2 == {'bar': 10} \/\/using java script"}},{"result":{"nanos":3419208,"millis":3.419208,"status":"passed"},"step":{"line":36,"prefix":"*","index":5,"text":"def json3 = {\"bar\": #(parseInt(foo)) } \/\/using java script not equals function"}},{"result":{"nanos":1706442,"errorMessage":"match failed: EQUALS\n  $ | not equal | match failed for name: 'bar' (MAP:MAP)\n  {\"bar\":10}\n  {\"bar\":\"10\"}\n\n    $.bar | data types don't match (NUMBER:STRING)\n    10\n    '10'\n\nclasspath:greenway\/features\/retryAndSleep.feature:37","millis":1.706442,"status":"failed"},"step":{"line":37,"prefix":"And","index":6,"text":"match json3 == {'bar': '10'} \/\/using java script"},"stepLog":"15:30:45.112 classpath:greenway\/features\/retryAndSleep.feature:37\nAnd match json3 == {'bar': '10'} \/\/using java script\nmatch failed: EQUALS\n  $ | not equal | match failed for name: 'bar' (MAP:MAP)\n  {\"bar\":10}\n  {\"bar\":\"10\"}\n\n    $.bar | data types don't match (NUMBER:STRING)\n    10\n    '10'\n\nclasspath:greenway\/features\/retryAndSleep.feature:37\n"}],"line":30,"description":"","durationMillis":24.429815,"failed":true,"error":"match failed: EQUALS\n  $ | not equal | match failed for name: 'bar' (MAP:MAP)\n  {\"bar\":10}\n  {\"bar\":\"10\"}\n\n    $.bar | data types don't match (NUMBER:STRING)\n    10\n    '10'\n\nclasspath:greenway\/features\/retryAndSleep.feature:37","tags":["retryandsleep"],"executorName":"main","name":"Converting the string to number","startTime":1662804045085,"refId":"[4:30]","endTime":1662804045112,"exampleIndex":-1}],"callDepth":0,"name":"Retry and Sleep","description":"","resultDate":"2022-09-10 03:30:45 PM","durationMillis":6930.680121,"passedCount":3}